solid OpenSCAD_Model
  facet normal -1 0 0
    outer loop
      vertex -19 -16.5 -1
      vertex -19 16.5 1
      vertex -19 16.5 -1
    endloop
  endfacet
  facet normal -1 -0 0
    outer loop
      vertex -19 16.5 1
      vertex -19 -16.5 -1
      vertex -19 -16.5 1
    endloop
  endfacet
  facet normal 0 0 1
    outer loop
      vertex -13 -10.5 1
      vertex -15 -10.5 1
      vertex -13 -12.5 1
    endloop
  endfacet
  facet normal 0 0 1
    outer loop
      vertex 19 16.5 1
      vertex 15 10.5 1
      vertex 19 -16.5 1
    endloop
  endfacet
  facet normal 0 0 1
    outer loop
      vertex 19 16.5 1
      vertex 13 12.5 1
      vertex 15 10.5 1
    endloop
  endfacet
  facet normal 0 0 1
    outer loop
      vertex 19 16.5 1
      vertex -13 12.5 1
      vertex 13 12.5 1
    endloop
  endfacet
  facet normal 0 0 1
    outer loop
      vertex -13 12.5 1
      vertex -15 10.5 1
      vertex -13 10.5 1
    endloop
  endfacet
  facet normal 0 0 1
    outer loop
      vertex -15 10.5 1
      vertex -19 16.5 1
      vertex -15 -10.5 1
    endloop
  endfacet
  facet normal 0 0 1
    outer loop
      vertex -13 12.5 1
      vertex -19 16.5 1
      vertex -15 10.5 1
    endloop
  endfacet
  facet normal -0 0 1
    outer loop
      vertex -19 16.5 1
      vertex -13 12.5 1
      vertex 19 16.5 1
    endloop
  endfacet
  facet normal -0 0 1
    outer loop
      vertex 15 -10.5 1
      vertex 19 -16.5 1
      vertex 15 10.5 1
    endloop
  endfacet
  facet normal 0 0 1
    outer loop
      vertex 13 -12.5 1
      vertex 15 -10.5 1
      vertex 13 -10.5 1
    endloop
  endfacet
  facet normal 0 0 1
    outer loop
      vertex 15 -10.5 1
      vertex 13 -12.5 1
      vertex 19 -16.5 1
    endloop
  endfacet
  facet normal -0 0 1
    outer loop
      vertex -13 -12.5 1
      vertex 19 -16.5 1
      vertex 13 -12.5 1
    endloop
  endfacet
  facet normal 0 0 1
    outer loop
      vertex -13 -12.5 1
      vertex -19 -16.5 1
      vertex 19 -16.5 1
    endloop
  endfacet
  facet normal 0 0 1
    outer loop
      vertex -15 -10.5 1
      vertex -19 -16.5 1
      vertex -13 -12.5 1
    endloop
  endfacet
  facet normal 0 0 1
    outer loop
      vertex -19 -16.5 1
      vertex -15 -10.5 1
      vertex -19 16.5 1
    endloop
  endfacet
  facet normal 0 0 1
    outer loop
      vertex 15 10.5 1
      vertex 13 12.5 1
      vertex 13 10.5 1
    endloop
  endfacet
  facet normal 1 -0 0
    outer loop
      vertex 19 -16.5 1
      vertex 19 16.5 -1
      vertex 19 16.5 1
    endloop
  endfacet
  facet normal 1 0 0
    outer loop
      vertex 19 16.5 -1
      vertex 19 -16.5 1
      vertex 19 -16.5 -1
    endloop
  endfacet
  facet normal 0 0 -1
    outer loop
      vertex -13 10.5 -1
      vertex -15 10.5 -1
      vertex -13 12.5 -1
    endloop
  endfacet
  facet normal 0 0 -1
    outer loop
      vertex 19 -16.5 -1
      vertex 15 -10.5 -1
      vertex 19 16.5 -1
    endloop
  endfacet
  facet normal 0 0 -1
    outer loop
      vertex 19 -16.5 -1
      vertex 13 -12.5 -1
      vertex 15 -10.5 -1
    endloop
  endfacet
  facet normal 0 0 -1
    outer loop
      vertex 19 -16.5 -1
      vertex -13 -12.5 -1
      vertex 13 -12.5 -1
    endloop
  endfacet
  facet normal 0 0 -1
    outer loop
      vertex -13 -12.5 -1
      vertex -15 -10.5 -1
      vertex -13 -10.5 -1
    endloop
  endfacet
  facet normal -0 0 -1
    outer loop
      vertex -15 -10.5 -1
      vertex -19 -16.5 -1
      vertex -15 10.5 -1
    endloop
  endfacet
  facet normal -0 0 -1
    outer loop
      vertex -13 -12.5 -1
      vertex -19 -16.5 -1
      vertex -15 -10.5 -1
    endloop
  endfacet
  facet normal 0 0 -1
    outer loop
      vertex -19 -16.5 -1
      vertex -13 -12.5 -1
      vertex 19 -16.5 -1
    endloop
  endfacet
  facet normal 0 0 -1
    outer loop
      vertex 15 10.5 -1
      vertex 19 16.5 -1
      vertex 15 -10.5 -1
    endloop
  endfacet
  facet normal 0 0 -1
    outer loop
      vertex 13 12.5 -1
      vertex 15 10.5 -1
      vertex 13 10.5 -1
    endloop
  endfacet
  facet normal 0 0 -1
    outer loop
      vertex 15 10.5 -1
      vertex 13 12.5 -1
      vertex 19 16.5 -1
    endloop
  endfacet
  facet normal 0 0 -1
    outer loop
      vertex -13 12.5 -1
      vertex 19 16.5 -1
      vertex 13 12.5 -1
    endloop
  endfacet
  facet normal 0 0 -1
    outer loop
      vertex -13 12.5 -1
      vertex -19 16.5 -1
      vertex 19 16.5 -1
    endloop
  endfacet
  facet normal 0 0 -1
    outer loop
      vertex -15 10.5 -1
      vertex -19 16.5 -1
      vertex -13 12.5 -1
    endloop
  endfacet
  facet normal 0 0 -1
    outer loop
      vertex -19 16.5 -1
      vertex -15 10.5 -1
      vertex -19 -16.5 -1
    endloop
  endfacet
  facet normal -0 0 -1
    outer loop
      vertex 15 -10.5 -1
      vertex 13 -12.5 -1
      vertex 13 -10.5 -1
    endloop
  endfacet
  facet normal 0 -1 0
    outer loop
      vertex -19 -16.5 -1
      vertex 19 -16.5 1
      vertex -19 -16.5 1
    endloop
  endfacet
  facet normal 0 -1 -0
    outer loop
      vertex 19 -16.5 1
      vertex -19 -16.5 -1
      vertex 19 -16.5 -1
    endloop
  endfacet
  facet normal 0 1 -0
    outer loop
      vertex 19 16.5 -1
      vertex -19 16.5 1
      vertex 19 16.5 1
    endloop
  endfacet
  facet normal 0 1 0
    outer loop
      vertex -19 16.5 1
      vertex 19 16.5 -1
      vertex -19 16.5 -1
    endloop
  endfacet
  facet normal 1 -0 0
    outer loop
      vertex -13 -12.5 1
      vertex -13 -10.5 -1
      vertex -13 -10.5 1
    endloop
  endfacet
  facet normal 1 0 0
    outer loop
      vertex -13 -10.5 -1
      vertex -13 -12.5 1
      vertex -13 -12.5 -1
    endloop
  endfacet
  facet normal 1 -0 0
    outer loop
      vertex -13 10.5 1
      vertex -13 12.5 -1
      vertex -13 12.5 1
    endloop
  endfacet
  facet normal 1 0 0
    outer loop
      vertex -13 12.5 -1
      vertex -13 10.5 1
      vertex -13 10.5 -1
    endloop
  endfacet
  facet normal -1 0 0
    outer loop
      vertex 13 10.5 -1
      vertex 13 12.5 1
      vertex 13 12.5 -1
    endloop
  endfacet
  facet normal -1 -0 0
    outer loop
      vertex 13 12.5 1
      vertex 13 10.5 -1
      vertex 13 10.5 1
    endloop
  endfacet
  facet normal -1 0 0
    outer loop
      vertex 13 -12.5 -1
      vertex 13 -10.5 1
      vertex 13 -10.5 -1
    endloop
  endfacet
  facet normal -1 -0 0
    outer loop
      vertex 13 -10.5 1
      vertex 13 -12.5 -1
      vertex 13 -12.5 1
    endloop
  endfacet
  facet normal 0 -1 0
    outer loop
      vertex -13 12.5 -1
      vertex 13 12.5 1
      vertex -13 12.5 1
    endloop
  endfacet
  facet normal 0 -1 -0
    outer loop
      vertex 13 12.5 1
      vertex -13 12.5 -1
      vertex 13 12.5 -1
    endloop
  endfacet
  facet normal 0 1 -0
    outer loop
      vertex 13 -12.5 -1
      vertex -13 -12.5 1
      vertex 13 -12.5 1
    endloop
  endfacet
  facet normal 0 1 0
    outer loop
      vertex -13 -12.5 1
      vertex 13 -12.5 -1
      vertex -13 -12.5 -1
    endloop
  endfacet
  facet normal 1 -0 0
    outer loop
      vertex -15 -10.5 1
      vertex -15 10.5 -1
      vertex -15 10.5 1
    endloop
  endfacet
  facet normal 1 0 0
    outer loop
      vertex -15 10.5 -1
      vertex -15 -10.5 1
      vertex -15 -10.5 -1
    endloop
  endfacet
  facet normal -1 0 0
    outer loop
      vertex 15 -10.5 -1
      vertex 15 10.5 1
      vertex 15 10.5 -1
    endloop
  endfacet
  facet normal -1 -0 0
    outer loop
      vertex 15 10.5 1
      vertex 15 -10.5 -1
      vertex 15 -10.5 1
    endloop
  endfacet
  facet normal 0 -1 0
    outer loop
      vertex -15 10.5 -1
      vertex -13 10.5 1
      vertex -15 10.5 1
    endloop
  endfacet
  facet normal 0 -1 -0
    outer loop
      vertex -13 10.5 1
      vertex -15 10.5 -1
      vertex -13 10.5 -1
    endloop
  endfacet
  facet normal 0 -1 0
    outer loop
      vertex 13 10.5 -1
      vertex 15 10.5 1
      vertex 13 10.5 1
    endloop
  endfacet
  facet normal 0 -1 -0
    outer loop
      vertex 15 10.5 1
      vertex 13 10.5 -1
      vertex 15 10.5 -1
    endloop
  endfacet
  facet normal 0 1 -0
    outer loop
      vertex -13 -10.5 -1
      vertex -15 -10.5 1
      vertex -13 -10.5 1
    endloop
  endfacet
  facet normal 0 1 0
    outer loop
      vertex -15 -10.5 1
      vertex -13 -10.5 -1
      vertex -15 -10.5 -1
    endloop
  endfacet
  facet normal 0 1 -0
    outer loop
      vertex 15 -10.5 -1
      vertex 13 -10.5 1
      vertex 15 -10.5 1
    endloop
  endfacet
  facet normal 0 1 0
    outer loop
      vertex 13 -10.5 1
      vertex 15 -10.5 -1
      vertex 13 -10.5 -1
    endloop
  endfacet
endsolid OpenSCAD_Model
